-- Merging decision tree log ---
manifest
ADDED from D:\pricelabel\app\src\main\AndroidManifest.xml:2:1-40:12
INJECTED from D:\pricelabel\app\src\main\AndroidManifest.xml:2:1-40:12
INJECTED from D:\pricelabel\app\src\main\AndroidManifest.xml:2:1-40:12
INJECTED from D:\pricelabel\app\src\main\AndroidManifest.xml:2:1-40:12
MERGED from [com.facebook.stetho:stetho-okhttp:1.5.1] C:\Users\sreek\.gradle\caches\transforms-2\files-2.1\1332707a281eeb8576b2d6c91dcd531f\jetified-stetho-okhttp-1.5.1\AndroidManifest.xml:2:1-13:12
MERGED from [com.facebook.stetho:stetho:1.5.1] C:\Users\sreek\.gradle\caches\transforms-2\files-2.1\cded13775500a926f793dfab521dd208\jetified-stetho-1.5.1\AndroidManifest.xml:2:1-13:12
MERGED from [com.amitshekhar.android:debug-db:1.0.6] C:\Users\sreek\.gradle\caches\transforms-2\files-2.1\40d132d4169ee4715906e6aabb11ff89\jetified-debug-db-1.0.6\AndroidManifest.xml:2:1-19:12
MERGED from [androidx.navigation:navigation-ui:2.3.0] C:\Users\sreek\.gradle\caches\transforms-2\files-2.1\d0f92c0b26fabb47a28488bab3cc8456\navigation-ui-2.3.0\AndroidManifest.xml:17:1-24:12
MERGED from [com.google.android.material:material:1.3.0-alpha02] C:\Users\sreek\.gradle\caches\transforms-2\files-2.1\2ee309b52321766dad6c8970877907f3\material-1.3.0-alpha02\AndroidManifest.xml:17:1-24:12
MERGED from [androidx.constraintlayout:constraintlayout:2.0.1] C:\Users\sreek\.gradle\caches\transforms-2\files-2.1\86e1e5d883ec66c1063a0d9a82a27792\constraintlayout-2.0.1\AndroidManifest.xml:2:1-11:12
MERGED from [androidx.appcompat:appcompat:1.2.0] C:\Users\sreek\.gradle\caches\transforms-2\files-2.1\bf96d2b5a86ecd602a621e7e96856420\appcompat-1.2.0\AndroidManifest.xml:17:1-24:12
MERGED from [androidx.cardview:cardview:1.0.0] C:\Users\sreek\.gradle\caches\transforms-2\files-2.1\ffb6a67829fa40d4c0493cb7e147e8f7\cardview-1.0.0\AndroidManifest.xml:17:1-22:12
MERGED from [androidx.viewpager2:viewpager2:1.0.0] C:\Users\sreek\.gradle\caches\transforms-2\files-2.1\65b26ec11e574f5d68d3fe93c8217bcb\jetified-viewpager2-1.0.0\AndroidManifest.xml:17:1-24:12
MERGED from [androidx.recyclerview:recyclerview:1.1.0] C:\Users\sreek\.gradle\caches\transforms-2\files-2.1\6e57c04e98c372fcd8878b95a3d5645d\recyclerview-1.1.0\AndroidManifest.xml:17:1-24:12
MERGED from [androidx.navigation:navigation-fragment:2.3.0] C:\Users\sreek\.gradle\caches\transforms-2\files-2.1\f99a902f1ef24516d77448bc7722a0ad\navigation-fragment-2.3.0\AndroidManifest.xml:17:1-24:12
MERGED from [com.google.android:flexbox:2.0.1] C:\Users\sreek\.gradle\caches\transforms-2\files-2.1\5ba621c9f07701737a82304735d91886\jetified-flexbox-2.0.1\AndroidManifest.xml:17:1-26:12
MERGED from [com.amitshekhar.android:debug-db-base:1.0.6] C:\Users\sreek\.gradle\caches\transforms-2\files-2.1\1d8f44d93434fad3ca24221c9379efa1\jetified-debug-db-base-1.0.6\AndroidManifest.xml:20:1-32:12
MERGED from [androidx.room:room-runtime:2.2.5] C:\Users\sreek\.gradle\caches\transforms-2\files-2.1\28e9fb3eede996dd8d91f8bfd7ee4a2a\room-runtime-2.2.5\AndroidManifest.xml:17:1-31:12
MERGED from [io.github.inflationx:calligraphy3:3.1.1] C:\Users\sreek\.gradle\caches\transforms-2\files-2.1\040f11cee115ebc74f59c5a3a24ece42\jetified-calligraphy3-3.1.1\AndroidManifest.xml:2:1-13:12
MERGED from [io.github.inflationx:viewpump:2.0.3] C:\Users\sreek\.gradle\caches\transforms-2\files-2.1\5bf27a51d0ddc4008ab28330e7dfd88b\jetified-viewpump-2.0.3\AndroidManifest.xml:2:1-11:12
MERGED from [androidx.appcompat:appcompat-resources:1.2.0] C:\Users\sreek\.gradle\caches\transforms-2\files-2.1\ee9b51f71825564f346013ea1d4d0318\jetified-appcompat-resources-1.2.0\AndroidManifest.xml:17:1-24:12
MERGED from [androidx.coordinatorlayout:coordinatorlayout:1.1.0] C:\Users\sreek\.gradle\caches\transforms-2\files-2.1\e491b027066b482b439af311917e1339\coordinatorlayout-1.1.0\AndroidManifest.xml:17:1-24:12
MERGED from [androidx.dynamicanimation:dynamicanimation:1.0.0] C:\Users\sreek\.gradle\caches\transforms-2\files-2.1\ad3a80d0049a2072dcab8dde16fee99e\dynamicanimation-1.0.0\AndroidManifest.xml:17:1-22:12
MERGED from [androidx.vectordrawable:vectordrawable-animated:1.1.0] C:\Users\sreek\.gradle\caches\transforms-2\files-2.1\32488318cfc756fa0f6ae91e625fa530\vectordrawable-animated-1.1.0\AndroidManifest.xml:17:1-24:12
MERGED from [androidx.vectordrawable:vectordrawable:1.1.0] C:\Users\sreek\.gradle\caches\transforms-2\files-2.1\0878a65179abd6a1b5016c6981bce614\vectordrawable-1.1.0\AndroidManifest.xml:17:1-24:12
MERGED from [androidx.fragment:fragment:1.2.4] C:\Users\sreek\.gradle\caches\transforms-2\files-2.1\5bf3d352f7231ef06152f54f6b419c4f\fragment-1.2.4\AndroidManifest.xml:17:1-24:12
MERGED from [androidx.drawerlayout:drawerlayout:1.1.0] C:\Users\sreek\.gradle\caches\transforms-2\files-2.1\c557a120438c963ae1a0b50855c601ed\drawerlayout-1.1.0\AndroidManifest.xml:17:1-24:12
MERGED from [androidx.viewpager:viewpager:1.0.0] C:\Users\sreek\.gradle\caches\transforms-2\files-2.1\ebc8011c39d26c440b76466a9b971345\viewpager-1.0.0\AndroidManifest.xml:17:1-22:12
MERGED from [androidx.customview:customview:1.1.0] C:\Users\sreek\.gradle\caches\transforms-2\files-2.1\0ed1423a28db0b992f3020271b2663c7\customview-1.1.0\AndroidManifest.xml:17:1-24:12
MERGED from [androidx.transition:transition:1.3.0] C:\Users\sreek\.gradle\caches\transforms-2\files-2.1\5554885db2b30fa6b213a0c4d60181b5\transition-1.3.0\AndroidManifest.xml:17:1-24:12
MERGED from [androidx.legacy:legacy-support-core-utils:1.0.0] C:\Users\sreek\.gradle\caches\transforms-2\files-2.1\18f5c1f0dcc08504bb6a1709d838cf6b\legacy-support-core-utils-1.0.0\AndroidManifest.xml:17:1-22:12
MERGED from [androidx.loader:loader:1.0.0] C:\Users\sreek\.gradle\caches\transforms-2\files-2.1\2118a7099009bdd29f0289728ee82c0d\loader-1.0.0\AndroidManifest.xml:17:1-22:12
MERGED from [androidx.navigation:navigation-runtime:2.3.0] C:\Users\sreek\.gradle\caches\transforms-2\files-2.1\f3d3882a378655ef09de1f3188c703c4\navigation-runtime-2.3.0\AndroidManifest.xml:17:1-24:12
MERGED from [androidx.activity:activity:1.1.0] C:\Users\sreek\.gradle\caches\transforms-2\files-2.1\2d2a73585fe4f95076865d735ed19c29\jetified-activity-1.1.0\AndroidManifest.xml:17:1-24:12
MERGED from [androidx.navigation:navigation-common:2.3.0] C:\Users\sreek\.gradle\caches\transforms-2\files-2.1\5fba9064df4a5c8e0eb46f2db7cd763f\navigation-common-2.3.0\AndroidManifest.xml:17:1-24:12
MERGED from [androidx.core:core:1.3.1] C:\Users\sreek\.gradle\caches\transforms-2\files-2.1\ae3468b444d41a56f261ecbb8448fe17\core-1.3.1\AndroidManifest.xml:17:1-26:12
MERGED from [androidx.cursoradapter:cursoradapter:1.0.0] C:\Users\sreek\.gradle\caches\transforms-2\files-2.1\7c0677be8011741026309ef690a9f4db\cursoradapter-1.0.0\AndroidManifest.xml:17:1-22:12
MERGED from [androidx.sqlite:sqlite-framework:2.0.1] C:\Users\sreek\.gradle\caches\transforms-2\files-2.1\8621afa19e14921a3ef938f03b26befc\sqlite-framework-2.0.1\AndroidManifest.xml:17:1-22:12
MERGED from [androidx.sqlite:sqlite:2.0.1] C:\Users\sreek\.gradle\caches\transforms-2\files-2.1\4aa96ba9b4a1bad32c45f9fda0b213ac\sqlite-2.0.1\AndroidManifest.xml:17:1-22:12
MERGED from [androidx.versionedparcelable:versionedparcelable:1.1.0] C:\Users\sreek\.gradle\caches\transforms-2\files-2.1\67aa86ef8808cac41aa5afe6d271f3ea\versionedparcelable-1.1.0\AndroidManifest.xml:17:1-27:12
MERGED from [androidx.lifecycle:lifecycle-viewmodel-savedstate:2.2.0] C:\Users\sreek\.gradle\caches\transforms-2\files-2.1\d45a7c6a9e0bde829e8ef33e16b5a75d\jetified-lifecycle-viewmodel-savedstate-2.2.0\AndroidManifest.xml:17:1-24:12
MERGED from [androidx.lifecycle:lifecycle-viewmodel:2.2.0] C:\Users\sreek\.gradle\caches\transforms-2\files-2.1\eaa1cbe2ef40ba62ba3fc8b8fb69519a\lifecycle-viewmodel-2.2.0\AndroidManifest.xml:17:1-24:12
MERGED from [androidx.savedstate:savedstate:1.0.0] C:\Users\sreek\.gradle\caches\transforms-2\files-2.1\86f8c8e32c7613bbe5e86eb4377e9413\jetified-savedstate-1.0.0\AndroidManifest.xml:17:1-24:12
MERGED from [androidx.lifecycle:lifecycle-runtime:2.2.0] C:\Users\sreek\.gradle\caches\transforms-2\files-2.1\46988bf365f6f851b8bbe2afbd38550b\lifecycle-runtime-2.2.0\AndroidManifest.xml:17:1-24:12
MERGED from [androidx.interpolator:interpolator:1.0.0] C:\Users\sreek\.gradle\caches\transforms-2\files-2.1\bcf856ddfeb04b3b73ed182739910d39\interpolator-1.0.0\AndroidManifest.xml:17:1-22:12
MERGED from [androidx.documentfile:documentfile:1.0.0] C:\Users\sreek\.gradle\caches\transforms-2\files-2.1\7bcdab9edca68925f6bcb92ddd8a20de\documentfile-1.0.0\AndroidManifest.xml:17:1-22:12
MERGED from [androidx.localbroadcastmanager:localbroadcastmanager:1.0.0] C:\Users\sreek\.gradle\caches\transforms-2\files-2.1\d711f81259436f09ffdf0b48105165e3\localbroadcastmanager-1.0.0\AndroidManifest.xml:17:1-22:12
MERGED from [androidx.print:print:1.0.0] C:\Users\sreek\.gradle\caches\transforms-2\files-2.1\87e4a5cb4839ebd5d033fa0ae6227780\print-1.0.0\AndroidManifest.xml:17:1-22:12
MERGED from [androidx.lifecycle:lifecycle-livedata:2.0.0] C:\Users\sreek\.gradle\caches\transforms-2\files-2.1\c6f1e76c078a7e4f5288325854cab247\lifecycle-livedata-2.0.0\AndroidManifest.xml:17:1-22:12
MERGED from [androidx.lifecycle:lifecycle-livedata-core:2.2.0] C:\Users\sreek\.gradle\caches\transforms-2\files-2.1\336e4d7f5d818582899034e03216341f\lifecycle-livedata-core-2.2.0\AndroidManifest.xml:17:1-24:12
MERGED from [androidx.arch.core:core-runtime:2.1.0] C:\Users\sreek\.gradle\caches\transforms-2\files-2.1\e737982ea91fdf7ea321d344c75db0be\core-runtime-2.1.0\AndroidManifest.xml:17:1-24:12
MERGED from [androidx.annotation:annotation-experimental:1.0.0] C:\Users\sreek\.gradle\caches\transforms-2\files-2.1\1e0614212b25f4ae67724a3587ed8129\jetified-annotation-experimental-1.0.0\AndroidManifest.xml:17:1-24:12
INJECTED from D:\pricelabel\app\src\main\AndroidManifest.xml:2:1-40:12
INJECTED from D:\pricelabel\app\src\main\AndroidManifest.xml:2:1-40:12
INJECTED from D:\pricelabel\app\src\main\AndroidManifest.xml:2:1-40:12
	package
		ADDED from D:\pricelabel\app\src\main\AndroidManifest.xml:3:5-35
		INJECTED from D:\pricelabel\app\src\main\AndroidManifest.xml
		INJECTED from D:\pricelabel\app\src\main\AndroidManifest.xml
	android:versionName
		INJECTED from D:\pricelabel\app\src\main\AndroidManifest.xml
		ADDED from D:\pricelabel\app\src\main\AndroidManifest.xml:2:1-40:12
		INJECTED from D:\pricelabel\app\src\main\AndroidManifest.xml
	android:versionCode
		INJECTED from D:\pricelabel\app\src\main\AndroidManifest.xml
		ADDED from D:\pricelabel\app\src\main\AndroidManifest.xml:2:1-40:12
		INJECTED from D:\pricelabel\app\src\main\AndroidManifest.xml
	xmlns:android
		ADDED from D:\pricelabel\app\src\main\AndroidManifest.xml:2:11-69
uses-permission#android.permission.BLUETOOTH
ADDED from D:\pricelabel\app\src\main\AndroidManifest.xml:5:5-68
	android:name
		ADDED from D:\pricelabel\app\src\main\AndroidManifest.xml:5:22-65
uses-permission#android.permission.VIBRATE
ADDED from D:\pricelabel\app\src\main\AndroidManifest.xml:6:5-66
	android:name
		ADDED from D:\pricelabel\app\src\main\AndroidManifest.xml:6:22-63
uses-permission#android.permission.READ_EXTERNAL_STORAGE
ADDED from D:\pricelabel\app\src\main\AndroidManifest.xml:7:5-80
	android:name
		ADDED from D:\pricelabel\app\src\main\AndroidManifest.xml:7:22-77
uses-permission#android.permission.WRITE_EXTERNAL_STORAGE
ADDED from D:\pricelabel\app\src\main\AndroidManifest.xml:8:5-81
	android:name
		ADDED from D:\pricelabel\app\src\main\AndroidManifest.xml:8:22-78
uses-permission#android.permission.INTERNET
ADDED from D:\pricelabel\app\src\main\AndroidManifest.xml:9:5-67
MERGED from [com.amitshekhar.android:debug-db-base:1.0.6] C:\Users\sreek\.gradle\caches\transforms-2\files-2.1\1d8f44d93434fad3ca24221c9379efa1\jetified-debug-db-base-1.0.6\AndroidManifest.xml:29:5-67
MERGED from [com.amitshekhar.android:debug-db-base:1.0.6] C:\Users\sreek\.gradle\caches\transforms-2\files-2.1\1d8f44d93434fad3ca24221c9379efa1\jetified-debug-db-base-1.0.6\AndroidManifest.xml:29:5-67
	android:name
		ADDED from D:\pricelabel\app\src\main\AndroidManifest.xml:9:22-64
application
ADDED from D:\pricelabel\app\src\main\AndroidManifest.xml:11:5-38:19
MERGED from [com.facebook.stetho:stetho-okhttp:1.5.1] C:\Users\sreek\.gradle\caches\transforms-2\files-2.1\1332707a281eeb8576b2d6c91dcd531f\jetified-stetho-okhttp-1.5.1\AndroidManifest.xml:11:5-20
MERGED from [com.facebook.stetho:stetho-okhttp:1.5.1] C:\Users\sreek\.gradle\caches\transforms-2\files-2.1\1332707a281eeb8576b2d6c91dcd531f\jetified-stetho-okhttp-1.5.1\AndroidManifest.xml:11:5-20
MERGED from [com.facebook.stetho:stetho:1.5.1] C:\Users\sreek\.gradle\caches\transforms-2\files-2.1\cded13775500a926f793dfab521dd208\jetified-stetho-1.5.1\AndroidManifest.xml:11:5-20
MERGED from [com.facebook.stetho:stetho:1.5.1] C:\Users\sreek\.gradle\caches\transforms-2\files-2.1\cded13775500a926f793dfab521dd208\jetified-stetho-1.5.1\AndroidManifest.xml:11:5-20
MERGED from [com.amitshekhar.android:debug-db:1.0.6] C:\Users\sreek\.gradle\caches\transforms-2\files-2.1\40d132d4169ee4715906e6aabb11ff89\jetified-debug-db-1.0.6\AndroidManifest.xml:11:5-17:19
MERGED from [com.amitshekhar.android:debug-db:1.0.6] C:\Users\sreek\.gradle\caches\transforms-2\files-2.1\40d132d4169ee4715906e6aabb11ff89\jetified-debug-db-1.0.6\AndroidManifest.xml:11:5-17:19
MERGED from [com.google.android.material:material:1.3.0-alpha02] C:\Users\sreek\.gradle\caches\transforms-2\files-2.1\2ee309b52321766dad6c8970877907f3\material-1.3.0-alpha02\AndroidManifest.xml:22:5-20
MERGED from [com.google.android.material:material:1.3.0-alpha02] C:\Users\sreek\.gradle\caches\transforms-2\files-2.1\2ee309b52321766dad6c8970877907f3\material-1.3.0-alpha02\AndroidManifest.xml:22:5-20
MERGED from [androidx.constraintlayout:constraintlayout:2.0.1] C:\Users\sreek\.gradle\caches\transforms-2\files-2.1\86e1e5d883ec66c1063a0d9a82a27792\constraintlayout-2.0.1\AndroidManifest.xml:9:5-20
MERGED from [androidx.constraintlayout:constraintlayout:2.0.1] C:\Users\sreek\.gradle\caches\transforms-2\files-2.1\86e1e5d883ec66c1063a0d9a82a27792\constraintlayout-2.0.1\AndroidManifest.xml:9:5-20
MERGED from [androidx.room:room-runtime:2.2.5] C:\Users\sreek\.gradle\caches\transforms-2\files-2.1\28e9fb3eede996dd8d91f8bfd7ee4a2a\room-runtime-2.2.5\AndroidManifest.xml:24:5-29:19
MERGED from [androidx.room:room-runtime:2.2.5] C:\Users\sreek\.gradle\caches\transforms-2\files-2.1\28e9fb3eede996dd8d91f8bfd7ee4a2a\room-runtime-2.2.5\AndroidManifest.xml:24:5-29:19
MERGED from [io.github.inflationx:calligraphy3:3.1.1] C:\Users\sreek\.gradle\caches\transforms-2\files-2.1\040f11cee115ebc74f59c5a3a24ece42\jetified-calligraphy3-3.1.1\AndroidManifest.xml:11:5-20
MERGED from [io.github.inflationx:calligraphy3:3.1.1] C:\Users\sreek\.gradle\caches\transforms-2\files-2.1\040f11cee115ebc74f59c5a3a24ece42\jetified-calligraphy3-3.1.1\AndroidManifest.xml:11:5-20
MERGED from [io.github.inflationx:viewpump:2.0.3] C:\Users\sreek\.gradle\caches\transforms-2\files-2.1\5bf27a51d0ddc4008ab28330e7dfd88b\jetified-viewpump-2.0.3\AndroidManifest.xml:9:5-20
MERGED from [io.github.inflationx:viewpump:2.0.3] C:\Users\sreek\.gradle\caches\transforms-2\files-2.1\5bf27a51d0ddc4008ab28330e7dfd88b\jetified-viewpump-2.0.3\AndroidManifest.xml:9:5-20
MERGED from [androidx.core:core:1.3.1] C:\Users\sreek\.gradle\caches\transforms-2\files-2.1\ae3468b444d41a56f261ecbb8448fe17\core-1.3.1\AndroidManifest.xml:24:5-89
MERGED from [androidx.core:core:1.3.1] C:\Users\sreek\.gradle\caches\transforms-2\files-2.1\ae3468b444d41a56f261ecbb8448fe17\core-1.3.1\AndroidManifest.xml:24:5-89
MERGED from [androidx.versionedparcelable:versionedparcelable:1.1.0] C:\Users\sreek\.gradle\caches\transforms-2\files-2.1\67aa86ef8808cac41aa5afe6d271f3ea\versionedparcelable-1.1.0\AndroidManifest.xml:24:5-25:19
MERGED from [androidx.versionedparcelable:versionedparcelable:1.1.0] C:\Users\sreek\.gradle\caches\transforms-2\files-2.1\67aa86ef8808cac41aa5afe6d271f3ea\versionedparcelable-1.1.0\AndroidManifest.xml:24:5-25:19
	android:appComponentFactory
		ADDED from [androidx.core:core:1.3.1] C:\Users\sreek\.gradle\caches\transforms-2\files-2.1\ae3468b444d41a56f261ecbb8448fe17\core-1.3.1\AndroidManifest.xml:24:18-86
	android:supportsRtl
		ADDED from D:\pricelabel\app\src\main\AndroidManifest.xml:17:9-35
	android:label
		ADDED from D:\pricelabel\app\src\main\AndroidManifest.xml:15:9-41
	android:roundIcon
		ADDED from D:\pricelabel\app\src\main\AndroidManifest.xml:16:9-56
	android:icon
		ADDED from D:\pricelabel\app\src\main\AndroidManifest.xml:14:9-45
	android:allowBackup
		ADDED from D:\pricelabel\app\src\main\AndroidManifest.xml:13:9-35
	android:theme
		ADDED from D:\pricelabel\app\src\main\AndroidManifest.xml:18:9-40
	android:name
		ADDED from D:\pricelabel\app\src\main\AndroidManifest.xml:12:9-48
activity#com.dcode.pricelabel.ui.view.SettingsActivity
ADDED from D:\pricelabel\app\src\main\AndroidManifest.xml:19:9-27:20
	android:screenOrientation
		ADDED from D:\pricelabel\app\src\main\AndroidManifest.xml:21:13-49
	android:name
		ADDED from D:\pricelabel\app\src\main\AndroidManifest.xml:20:13-73
intent-filter#action:name:android.intent.action.MAIN+category:name:android.intent.category.LAUNCHER
ADDED from D:\pricelabel\app\src\main\AndroidManifest.xml:23:13-26:29
action#android.intent.action.MAIN
ADDED from D:\pricelabel\app\src\main\AndroidManifest.xml:24:17-69
	android:name
		ADDED from D:\pricelabel\app\src\main\AndroidManifest.xml:24:25-66
category#android.intent.category.LAUNCHER
ADDED from D:\pricelabel\app\src\main\AndroidManifest.xml:25:17-77
	android:name
		ADDED from D:\pricelabel\app\src\main\AndroidManifest.xml:25:27-74
activity#com.dcode.pricelabel.ui.view.LoginActivity
ADDED from D:\pricelabel\app\src\main\AndroidManifest.xml:28:9-30:51
	android:screenOrientation
		ADDED from D:\pricelabel\app\src\main\AndroidManifest.xml:30:13-49
	android:name
		ADDED from D:\pricelabel\app\src\main\AndroidManifest.xml:29:13-70
activity#com.dcode.pricelabel.ui.view.MainActivity
ADDED from D:\pricelabel\app\src\main\AndroidManifest.xml:31:9-33:52
	android:screenOrientation
		ADDED from D:\pricelabel\app\src\main\AndroidManifest.xml:33:13-49
	android:name
		ADDED from D:\pricelabel\app\src\main\AndroidManifest.xml:32:13-69
activity#com.dcode.pricelabel.ui.view.DocNoActivity
ADDED from D:\pricelabel\app\src\main\AndroidManifest.xml:34:9-35:52
	android:screenOrientation
		ADDED from D:\pricelabel\app\src\main\AndroidManifest.xml:35:13-49
	android:name
		ADDED from D:\pricelabel\app\src\main\AndroidManifest.xml:34:19-76
activity#com.dcode.pricelabel.ui.view.PrintLabelActivity
ADDED from D:\pricelabel\app\src\main\AndroidManifest.xml:36:9-37:52
	android:screenOrientation
		ADDED from D:\pricelabel\app\src\main\AndroidManifest.xml:37:13-49
	android:name
		ADDED from D:\pricelabel\app\src\main\AndroidManifest.xml:36:19-81
uses-sdk
INJECTED from D:\pricelabel\app\src\main\AndroidManifest.xml reason: use-sdk injection requested
INJECTED from D:\pricelabel\app\src\main\AndroidManifest.xml
INJECTED from D:\pricelabel\app\src\main\AndroidManifest.xml
MERGED from [com.facebook.stetho:stetho-okhttp:1.5.1] C:\Users\sreek\.gradle\caches\transforms-2\files-2.1\1332707a281eeb8576b2d6c91dcd531f\jetified-stetho-okhttp-1.5.1\AndroidManifest.xml:7:5-9:41
MERGED from [com.facebook.stetho:stetho-okhttp:1.5.1] C:\Users\sreek\.gradle\caches\transforms-2\files-2.1\1332707a281eeb8576b2d6c91dcd531f\jetified-stetho-okhttp-1.5.1\AndroidManifest.xml:7:5-9:41
MERGED from [com.facebook.stetho:stetho:1.5.1] C:\Users\sreek\.gradle\caches\transforms-2\files-2.1\cded13775500a926f793dfab521dd208\jetified-stetho-1.5.1\AndroidManifest.xml:7:5-9:41
MERGED from [com.facebook.stetho:stetho:1.5.1] C:\Users\sreek\.gradle\caches\transforms-2\files-2.1\cded13775500a926f793dfab521dd208\jetified-stetho-1.5.1\AndroidManifest.xml:7:5-9:41
MERGED from [com.amitshekhar.android:debug-db:1.0.6] C:\Users\sreek\.gradle\caches\transforms-2\files-2.1\40d132d4169ee4715906e6aabb11ff89\jetified-debug-db-1.0.6\AndroidManifest.xml:7:5-9:41
MERGED from [com.amitshekhar.android:debug-db:1.0.6] C:\Users\sreek\.gradle\caches\transforms-2\files-2.1\40d132d4169ee4715906e6aabb11ff89\jetified-debug-db-1.0.6\AndroidManifest.xml:7:5-9:41
MERGED from [androidx.navigation:navigation-ui:2.3.0] C:\Users\sreek\.gradle\caches\transforms-2\files-2.1\d0f92c0b26fabb47a28488bab3cc8456\navigation-ui-2.3.0\AndroidManifest.xml:20:5-22:41
MERGED from [androidx.navigation:navigation-ui:2.3.0] C:\Users\sreek\.gradle\caches\transforms-2\files-2.1\d0f92c0b26fabb47a28488bab3cc8456\navigation-ui-2.3.0\AndroidManifest.xml:20:5-22:41
MERGED from [com.google.android.material:material:1.3.0-alpha02] C:\Users\sreek\.gradle\caches\transforms-2\files-2.1\2ee309b52321766dad6c8970877907f3\material-1.3.0-alpha02\AndroidManifest.xml:20:5-44
MERGED from [com.google.android.material:material:1.3.0-alpha02] C:\Users\sreek\.gradle\caches\transforms-2\files-2.1\2ee309b52321766dad6c8970877907f3\material-1.3.0-alpha02\AndroidManifest.xml:20:5-44
MERGED from [androidx.constraintlayout:constraintlayout:2.0.1] C:\Users\sreek\.gradle\caches\transforms-2\files-2.1\86e1e5d883ec66c1063a0d9a82a27792\constraintlayout-2.0.1\AndroidManifest.xml:5:5-7:41
MERGED from [androidx.constraintlayout:constraintlayout:2.0.1] C:\Users\sreek\.gradle\caches\transforms-2\files-2.1\86e1e5d883ec66c1063a0d9a82a27792\constraintlayout-2.0.1\AndroidManifest.xml:5:5-7:41
MERGED from [androidx.appcompat:appcompat:1.2.0] C:\Users\sreek\.gradle\caches\transforms-2\files-2.1\bf96d2b5a86ecd602a621e7e96856420\appcompat-1.2.0\AndroidManifest.xml:20:5-22:41
MERGED from [androidx.appcompat:appcompat:1.2.0] C:\Users\sreek\.gradle\caches\transforms-2\files-2.1\bf96d2b5a86ecd602a621e7e96856420\appcompat-1.2.0\AndroidManifest.xml:20:5-22:41
MERGED from [androidx.cardview:cardview:1.0.0] C:\Users\sreek\.gradle\caches\transforms-2\files-2.1\ffb6a67829fa40d4c0493cb7e147e8f7\cardview-1.0.0\AndroidManifest.xml:20:5-44
MERGED from [androidx.cardview:cardview:1.0.0] C:\Users\sreek\.gradle\caches\transforms-2\files-2.1\ffb6a67829fa40d4c0493cb7e147e8f7\cardview-1.0.0\AndroidManifest.xml:20:5-44
MERGED from [androidx.viewpager2:viewpager2:1.0.0] C:\Users\sreek\.gradle\caches\transforms-2\files-2.1\65b26ec11e574f5d68d3fe93c8217bcb\jetified-viewpager2-1.0.0\AndroidManifest.xml:20:5-22:41
MERGED from [androidx.viewpager2:viewpager2:1.0.0] C:\Users\sreek\.gradle\caches\transforms-2\files-2.1\65b26ec11e574f5d68d3fe93c8217bcb\jetified-viewpager2-1.0.0\AndroidManifest.xml:20:5-22:41
MERGED from [androidx.recyclerview:recyclerview:1.1.0] C:\Users\sreek\.gradle\caches\transforms-2\files-2.1\6e57c04e98c372fcd8878b95a3d5645d\recyclerview-1.1.0\AndroidManifest.xml:20:5-22:41
MERGED from [androidx.recyclerview:recyclerview:1.1.0] C:\Users\sreek\.gradle\caches\transforms-2\files-2.1\6e57c04e98c372fcd8878b95a3d5645d\recyclerview-1.1.0\AndroidManifest.xml:20:5-22:41
MERGED from [androidx.navigation:navigation-fragment:2.3.0] C:\Users\sreek\.gradle\caches\transforms-2\files-2.1\f99a902f1ef24516d77448bc7722a0ad\navigation-fragment-2.3.0\AndroidManifest.xml:20:5-22:41
MERGED from [androidx.navigation:navigation-fragment:2.3.0] C:\Users\sreek\.gradle\caches\transforms-2\files-2.1\f99a902f1ef24516d77448bc7722a0ad\navigation-fragment-2.3.0\AndroidManifest.xml:20:5-22:41
MERGED from [com.google.android:flexbox:2.0.1] C:\Users\sreek\.gradle\caches\transforms-2\files-2.1\5ba621c9f07701737a82304735d91886\jetified-flexbox-2.0.1\AndroidManifest.xml:22:5-24:41
MERGED from [com.google.android:flexbox:2.0.1] C:\Users\sreek\.gradle\caches\transforms-2\files-2.1\5ba621c9f07701737a82304735d91886\jetified-flexbox-2.0.1\AndroidManifest.xml:22:5-24:41
MERGED from [com.amitshekhar.android:debug-db-base:1.0.6] C:\Users\sreek\.gradle\caches\transforms-2\files-2.1\1d8f44d93434fad3ca24221c9379efa1\jetified-debug-db-base-1.0.6\AndroidManifest.xml:25:5-27:41
MERGED from [com.amitshekhar.android:debug-db-base:1.0.6] C:\Users\sreek\.gradle\caches\transforms-2\files-2.1\1d8f44d93434fad3ca24221c9379efa1\jetified-debug-db-base-1.0.6\AndroidManifest.xml:25:5-27:41
MERGED from [androidx.room:room-runtime:2.2.5] C:\Users\sreek\.gradle\caches\transforms-2\files-2.1\28e9fb3eede996dd8d91f8bfd7ee4a2a\room-runtime-2.2.5\AndroidManifest.xml:20:5-22:41
MERGED from [androidx.room:room-runtime:2.2.5] C:\Users\sreek\.gradle\caches\transforms-2\files-2.1\28e9fb3eede996dd8d91f8bfd7ee4a2a\room-runtime-2.2.5\AndroidManifest.xml:20:5-22:41
MERGED from [io.github.inflationx:calligraphy3:3.1.1] C:\Users\sreek\.gradle\caches\transforms-2\files-2.1\040f11cee115ebc74f59c5a3a24ece42\jetified-calligraphy3-3.1.1\AndroidManifest.xml:7:5-9:41
MERGED from [io.github.inflationx:calligraphy3:3.1.1] C:\Users\sreek\.gradle\caches\transforms-2\files-2.1\040f11cee115ebc74f59c5a3a24ece42\jetified-calligraphy3-3.1.1\AndroidManifest.xml:7:5-9:41
MERGED from [io.github.inflationx:viewpump:2.0.3] C:\Users\sreek\.gradle\caches\transforms-2\files-2.1\5bf27a51d0ddc4008ab28330e7dfd88b\jetified-viewpump-2.0.3\AndroidManifest.xml:5:5-7:41
MERGED from [io.github.inflationx:viewpump:2.0.3] C:\Users\sreek\.gradle\caches\transforms-2\files-2.1\5bf27a51d0ddc4008ab28330e7dfd88b\jetified-viewpump-2.0.3\AndroidManifest.xml:5:5-7:41
MERGED from [androidx.appcompat:appcompat-resources:1.2.0] C:\Users\sreek\.gradle\caches\transforms-2\files-2.1\ee9b51f71825564f346013ea1d4d0318\jetified-appcompat-resources-1.2.0\AndroidManifest.xml:20:5-22:41
MERGED from [androidx.appcompat:appcompat-resources:1.2.0] C:\Users\sreek\.gradle\caches\transforms-2\files-2.1\ee9b51f71825564f346013ea1d4d0318\jetified-appcompat-resources-1.2.0\AndroidManifest.xml:20:5-22:41
MERGED from [androidx.coordinatorlayout:coordinatorlayout:1.1.0] C:\Users\sreek\.gradle\caches\transforms-2\files-2.1\e491b027066b482b439af311917e1339\coordinatorlayout-1.1.0\AndroidManifest.xml:20:5-22:41
MERGED from [androidx.coordinatorlayout:coordinatorlayout:1.1.0] C:\Users\sreek\.gradle\caches\transforms-2\files-2.1\e491b027066b482b439af311917e1339\coordinatorlayout-1.1.0\AndroidManifest.xml:20:5-22:41
MERGED from [androidx.dynamicanimation:dynamicanimation:1.0.0] C:\Users\sreek\.gradle\caches\transforms-2\files-2.1\ad3a80d0049a2072dcab8dde16fee99e\dynamicanimation-1.0.0\AndroidManifest.xml:20:5-44
MERGED from [androidx.dynamicanimation:dynamicanimation:1.0.0] C:\Users\sreek\.gradle\caches\transforms-2\files-2.1\ad3a80d0049a2072dcab8dde16fee99e\dynamicanimation-1.0.0\AndroidManifest.xml:20:5-44
MERGED from [androidx.vectordrawable:vectordrawable-animated:1.1.0] C:\Users\sreek\.gradle\caches\transforms-2\files-2.1\32488318cfc756fa0f6ae91e625fa530\vectordrawable-animated-1.1.0\AndroidManifest.xml:20:5-22:41
MERGED from [androidx.vectordrawable:vectordrawable-animated:1.1.0] C:\Users\sreek\.gradle\caches\transforms-2\files-2.1\32488318cfc756fa0f6ae91e625fa530\vectordrawable-animated-1.1.0\AndroidManifest.xml:20:5-22:41
MERGED from [androidx.vectordrawable:vectordrawable:1.1.0] C:\Users\sreek\.gradle\caches\transforms-2\files-2.1\0878a65179abd6a1b5016c6981bce614\vectordrawable-1.1.0\AndroidManifest.xml:20:5-22:41
MERGED from [androidx.vectordrawable:vectordrawable:1.1.0] C:\Users\sreek\.gradle\caches\transforms-2\files-2.1\0878a65179abd6a1b5016c6981bce614\vectordrawable-1.1.0\AndroidManifest.xml:20:5-22:41
MERGED from [androidx.fragment:fragment:1.2.4] C:\Users\sreek\.gradle\caches\transforms-2\files-2.1\5bf3d352f7231ef06152f54f6b419c4f\fragment-1.2.4\AndroidManifest.xml:20:5-22:41
MERGED from [androidx.fragment:fragment:1.2.4] C:\Users\sreek\.gradle\caches\transforms-2\files-2.1\5bf3d352f7231ef06152f54f6b419c4f\fragment-1.2.4\AndroidManifest.xml:20:5-22:41
MERGED from [androidx.drawerlayout:drawerlayout:1.1.0] C:\Users\sreek\.gradle\caches\transforms-2\files-2.1\c557a120438c963ae1a0b50855c601ed\drawerlayout-1.1.0\AndroidManifest.xml:20:5-22:41
MERGED from [androidx.drawerlayout:drawerlayout:1.1.0] C:\Users\sreek\.gradle\caches\transforms-2\files-2.1\c557a120438c963ae1a0b50855c601ed\drawerlayout-1.1.0\AndroidManifest.xml:20:5-22:41
MERGED from [androidx.viewpager:viewpager:1.0.0] C:\Users\sreek\.gradle\caches\transforms-2\files-2.1\ebc8011c39d26c440b76466a9b971345\viewpager-1.0.0\AndroidManifest.xml:20:5-44
MERGED from [androidx.viewpager:viewpager:1.0.0] C:\Users\sreek\.gradle\caches\transforms-2\files-2.1\ebc8011c39d26c440b76466a9b971345\viewpager-1.0.0\AndroidManifest.xml:20:5-44
MERGED from [androidx.customview:customview:1.1.0] C:\Users\sreek\.gradle\caches\transforms-2\files-2.1\0ed1423a28db0b992f3020271b2663c7\customview-1.1.0\AndroidManifest.xml:20:5-22:41
MERGED from [androidx.customview:customview:1.1.0] C:\Users\sreek\.gradle\caches\transforms-2\files-2.1\0ed1423a28db0b992f3020271b2663c7\customview-1.1.0\AndroidManifest.xml:20:5-22:41
MERGED from [androidx.transition:transition:1.3.0] C:\Users\sreek\.gradle\caches\transforms-2\files-2.1\5554885db2b30fa6b213a0c4d60181b5\transition-1.3.0\AndroidManifest.xml:20:5-22:41
MERGED from [androidx.transition:transition:1.3.0] C:\Users\sreek\.gradle\caches\transforms-2\files-2.1\5554885db2b30fa6b213a0c4d60181b5\transition-1.3.0\AndroidManifest.xml:20:5-22:41
MERGED from [androidx.legacy:legacy-support-core-utils:1.0.0] C:\Users\sreek\.gradle\caches\transforms-2\files-2.1\18f5c1f0dcc08504bb6a1709d838cf6b\legacy-support-core-utils-1.0.0\AndroidManifest.xml:20:5-44
MERGED from [androidx.legacy:legacy-support-core-utils:1.0.0] C:\Users\sreek\.gradle\caches\transforms-2\files-2.1\18f5c1f0dcc08504bb6a1709d838cf6b\legacy-support-core-utils-1.0.0\AndroidManifest.xml:20:5-44
MERGED from [androidx.loader:loader:1.0.0] C:\Users\sreek\.gradle\caches\transforms-2\files-2.1\2118a7099009bdd29f0289728ee82c0d\loader-1.0.0\AndroidManifest.xml:20:5-44
MERGED from [androidx.loader:loader:1.0.0] C:\Users\sreek\.gradle\caches\transforms-2\files-2.1\2118a7099009bdd29f0289728ee82c0d\loader-1.0.0\AndroidManifest.xml:20:5-44
MERGED from [androidx.navigation:navigation-runtime:2.3.0] C:\Users\sreek\.gradle\caches\transforms-2\files-2.1\f3d3882a378655ef09de1f3188c703c4\navigation-runtime-2.3.0\AndroidManifest.xml:20:5-22:41
MERGED from [androidx.navigation:navigation-runtime:2.3.0] C:\Users\sreek\.gradle\caches\transforms-2\files-2.1\f3d3882a378655ef09de1f3188c703c4\navigation-runtime-2.3.0\AndroidManifest.xml:20:5-22:41
MERGED from [androidx.activity:activity:1.1.0] C:\Users\sreek\.gradle\caches\transforms-2\files-2.1\2d2a73585fe4f95076865d735ed19c29\jetified-activity-1.1.0\AndroidManifest.xml:20:5-22:41
MERGED from [androidx.activity:activity:1.1.0] C:\Users\sreek\.gradle\caches\transforms-2\files-2.1\2d2a73585fe4f95076865d735ed19c29\jetified-activity-1.1.0\AndroidManifest.xml:20:5-22:41
MERGED from [androidx.navigation:navigation-common:2.3.0] C:\Users\sreek\.gradle\caches\transforms-2\files-2.1\5fba9064df4a5c8e0eb46f2db7cd763f\navigation-common-2.3.0\AndroidManifest.xml:20:5-22:41
MERGED from [androidx.navigation:navigation-common:2.3.0] C:\Users\sreek\.gradle\caches\transforms-2\files-2.1\5fba9064df4a5c8e0eb46f2db7cd763f\navigation-common-2.3.0\AndroidManifest.xml:20:5-22:41
MERGED from [androidx.core:core:1.3.1] C:\Users\sreek\.gradle\caches\transforms-2\files-2.1\ae3468b444d41a56f261ecbb8448fe17\core-1.3.1\AndroidManifest.xml:20:5-22:41
MERGED from [androidx.core:core:1.3.1] C:\Users\sreek\.gradle\caches\transforms-2\files-2.1\ae3468b444d41a56f261ecbb8448fe17\core-1.3.1\AndroidManifest.xml:20:5-22:41
MERGED from [androidx.cursoradapter:cursoradapter:1.0.0] C:\Users\sreek\.gradle\caches\transforms-2\files-2.1\7c0677be8011741026309ef690a9f4db\cursoradapter-1.0.0\AndroidManifest.xml:20:5-44
MERGED from [androidx.cursoradapter:cursoradapter:1.0.0] C:\Users\sreek\.gradle\caches\transforms-2\files-2.1\7c0677be8011741026309ef690a9f4db\cursoradapter-1.0.0\AndroidManifest.xml:20:5-44
MERGED from [androidx.sqlite:sqlite-framework:2.0.1] C:\Users\sreek\.gradle\caches\transforms-2\files-2.1\8621afa19e14921a3ef938f03b26befc\sqlite-framework-2.0.1\AndroidManifest.xml:20:5-44
MERGED from [androidx.sqlite:sqlite-framework:2.0.1] C:\Users\sreek\.gradle\caches\transforms-2\files-2.1\8621afa19e14921a3ef938f03b26befc\sqlite-framework-2.0.1\AndroidManifest.xml:20:5-44
MERGED from [androidx.sqlite:sqlite:2.0.1] C:\Users\sreek\.gradle\caches\transforms-2\files-2.1\4aa96ba9b4a1bad32c45f9fda0b213ac\sqlite-2.0.1\AndroidManifest.xml:20:5-44
MERGED from [androidx.sqlite:sqlite:2.0.1] C:\Users\sreek\.gradle\caches\transforms-2\files-2.1\4aa96ba9b4a1bad32c45f9fda0b213ac\sqlite-2.0.1\AndroidManifest.xml:20:5-44
MERGED from [androidx.versionedparcelable:versionedparcelable:1.1.0] C:\Users\sreek\.gradle\caches\transforms-2\files-2.1\67aa86ef8808cac41aa5afe6d271f3ea\versionedparcelable-1.1.0\AndroidManifest.xml:20:5-22:41
MERGED from [androidx.versionedparcelable:versionedparcelable:1.1.0] C:\Users\sreek\.gradle\caches\transforms-2\files-2.1\67aa86ef8808cac41aa5afe6d271f3ea\versionedparcelable-1.1.0\AndroidManifest.xml:20:5-22:41
MERGED from [androidx.lifecycle:lifecycle-viewmodel-savedstate:2.2.0] C:\Users\sreek\.gradle\caches\transforms-2\files-2.1\d45a7c6a9e0bde829e8ef33e16b5a75d\jetified-lifecycle-viewmodel-savedstate-2.2.0\AndroidManifest.xml:20:5-22:41
MERGED from [androidx.lifecycle:lifecycle-viewmodel-savedstate:2.2.0] C:\Users\sreek\.gradle\caches\transforms-2\files-2.1\d45a7c6a9e0bde829e8ef33e16b5a75d\jetified-lifecycle-viewmodel-savedstate-2.2.0\AndroidManifest.xml:20:5-22:41
MERGED from [androidx.lifecycle:lifecycle-viewmodel:2.2.0] C:\Users\sreek\.gradle\caches\transforms-2\files-2.1\eaa1cbe2ef40ba62ba3fc8b8fb69519a\lifecycle-viewmodel-2.2.0\AndroidManifest.xml:20:5-22:41
MERGED from [androidx.lifecycle:lifecycle-viewmodel:2.2.0] C:\Users\sreek\.gradle\caches\transforms-2\files-2.1\eaa1cbe2ef40ba62ba3fc8b8fb69519a\lifecycle-viewmodel-2.2.0\AndroidManifest.xml:20:5-22:41
MERGED from [androidx.savedstate:savedstate:1.0.0] C:\Users\sreek\.gradle\caches\transforms-2\files-2.1\86f8c8e32c7613bbe5e86eb4377e9413\jetified-savedstate-1.0.0\AndroidManifest.xml:20:5-22:41
MERGED from [androidx.savedstate:savedstate:1.0.0] C:\Users\sreek\.gradle\caches\transforms-2\files-2.1\86f8c8e32c7613bbe5e86eb4377e9413\jetified-savedstate-1.0.0\AndroidManifest.xml:20:5-22:41
MERGED from [androidx.lifecycle:lifecycle-runtime:2.2.0] C:\Users\sreek\.gradle\caches\transforms-2\files-2.1\46988bf365f6f851b8bbe2afbd38550b\lifecycle-runtime-2.2.0\AndroidManifest.xml:20:5-22:41
MERGED from [androidx.lifecycle:lifecycle-runtime:2.2.0] C:\Users\sreek\.gradle\caches\transforms-2\files-2.1\46988bf365f6f851b8bbe2afbd38550b\lifecycle-runtime-2.2.0\AndroidManifest.xml:20:5-22:41
MERGED from [androidx.interpolator:interpolator:1.0.0] C:\Users\sreek\.gradle\caches\transforms-2\files-2.1\bcf856ddfeb04b3b73ed182739910d39\interpolator-1.0.0\AndroidManifest.xml:20:5-44
MERGED from [androidx.interpolator:interpolator:1.0.0] C:\Users\sreek\.gradle\caches\transforms-2\files-2.1\bcf856ddfeb04b3b73ed182739910d39\interpolator-1.0.0\AndroidManifest.xml:20:5-44
MERGED from [androidx.documentfile:documentfile:1.0.0] C:\Users\sreek\.gradle\caches\transforms-2\files-2.1\7bcdab9edca68925f6bcb92ddd8a20de\documentfile-1.0.0\AndroidManifest.xml:20:5-44
MERGED from [androidx.documentfile:documentfile:1.0.0] C:\Users\sreek\.gradle\caches\transforms-2\files-2.1\7bcdab9edca68925f6bcb92ddd8a20de\documentfile-1.0.0\AndroidManifest.xml:20:5-44
MERGED from [androidx.localbroadcastmanager:localbroadcastmanager:1.0.0] C:\Users\sreek\.gradle\caches\transforms-2\files-2.1\d711f81259436f09ffdf0b48105165e3\localbroadcastmanager-1.0.0\AndroidManifest.xml:20:5-44
MERGED from [androidx.localbroadcastmanager:localbroadcastmanager:1.0.0] C:\Users\sreek\.gradle\caches\transforms-2\files-2.1\d711f81259436f09ffdf0b48105165e3\localbroadcastmanager-1.0.0\AndroidManifest.xml:20:5-44
MERGED from [androidx.print:print:1.0.0] C:\Users\sreek\.gradle\caches\transforms-2\files-2.1\87e4a5cb4839ebd5d033fa0ae6227780\print-1.0.0\AndroidManifest.xml:20:5-44
MERGED from [androidx.print:print:1.0.0] C:\Users\sreek\.gradle\caches\transforms-2\files-2.1\87e4a5cb4839ebd5d033fa0ae6227780\print-1.0.0\AndroidManifest.xml:20:5-44
MERGED from [androidx.lifecycle:lifecycle-livedata:2.0.0] C:\Users\sreek\.gradle\caches\transforms-2\files-2.1\c6f1e76c078a7e4f5288325854cab247\lifecycle-livedata-2.0.0\AndroidManifest.xml:20:5-44
MERGED from [androidx.lifecycle:lifecycle-livedata:2.0.0] C:\Users\sreek\.gradle\caches\transforms-2\files-2.1\c6f1e76c078a7e4f5288325854cab247\lifecycle-livedata-2.0.0\AndroidManifest.xml:20:5-44
MERGED from [androidx.lifecycle:lifecycle-livedata-core:2.2.0] C:\Users\sreek\.gradle\caches\transforms-2\files-2.1\336e4d7f5d818582899034e03216341f\lifecycle-livedata-core-2.2.0\AndroidManifest.xml:20:5-22:41
MERGED from [androidx.lifecycle:lifecycle-livedata-core:2.2.0] C:\Users\sreek\.gradle\caches\transforms-2\files-2.1\336e4d7f5d818582899034e03216341f\lifecycle-livedata-core-2.2.0\AndroidManifest.xml:20:5-22:41
MERGED from [androidx.arch.core:core-runtime:2.1.0] C:\Users\sreek\.gradle\caches\transforms-2\files-2.1\e737982ea91fdf7ea321d344c75db0be\core-runtime-2.1.0\AndroidManifest.xml:20:5-22:41
MERGED from [androidx.arch.core:core-runtime:2.1.0] C:\Users\sreek\.gradle\caches\transforms-2\files-2.1\e737982ea91fdf7ea321d344c75db0be\core-runtime-2.1.0\AndroidManifest.xml:20:5-22:41
MERGED from [androidx.annotation:annotation-experimental:1.0.0] C:\Users\sreek\.gradle\caches\transforms-2\files-2.1\1e0614212b25f4ae67724a3587ed8129\jetified-annotation-experimental-1.0.0\AndroidManifest.xml:20:5-22:41
MERGED from [androidx.annotation:annotation-experimental:1.0.0] C:\Users\sreek\.gradle\caches\transforms-2\files-2.1\1e0614212b25f4ae67724a3587ed8129\jetified-annotation-experimental-1.0.0\AndroidManifest.xml:20:5-22:41
INJECTED from D:\pricelabel\app\src\main\AndroidManifest.xml
INJECTED from D:\pricelabel\app\src\main\AndroidManifest.xml
	android:targetSdkVersion
		INJECTED from D:\pricelabel\app\src\main\AndroidManifest.xml
		ADDED from D:\pricelabel\app\src\main\AndroidManifest.xml
		INJECTED from D:\pricelabel\app\src\main\AndroidManifest.xml
	android:minSdkVersion
		INJECTED from D:\pricelabel\app\src\main\AndroidManifest.xml
		ADDED from D:\pricelabel\app\src\main\AndroidManifest.xml
		INJECTED from D:\pricelabel\app\src\main\AndroidManifest.xml
provider#com.amitshekhar.debug.DebugDBInitProvider
ADDED from [com.amitshekhar.android:debug-db:1.0.6] C:\Users\sreek\.gradle\caches\transforms-2\files-2.1\40d132d4169ee4715906e6aabb11ff89\jetified-debug-db-1.0.6\AndroidManifest.xml:12:9-16:40
	android:enabled
		ADDED from [com.amitshekhar.android:debug-db:1.0.6] C:\Users\sreek\.gradle\caches\transforms-2\files-2.1\40d132d4169ee4715906e6aabb11ff89\jetified-debug-db-1.0.6\AndroidManifest.xml:15:13-35
	android:authorities
		ADDED from [com.amitshekhar.android:debug-db:1.0.6] C:\Users\sreek\.gradle\caches\transforms-2\files-2.1\40d132d4169ee4715906e6aabb11ff89\jetified-debug-db-1.0.6\AndroidManifest.xml:14:13-71
	android:exported
		ADDED from [com.amitshekhar.android:debug-db:1.0.6] C:\Users\sreek\.gradle\caches\transforms-2\files-2.1\40d132d4169ee4715906e6aabb11ff89\jetified-debug-db-1.0.6\AndroidManifest.xml:16:13-37
	android:name
		ADDED from [com.amitshekhar.android:debug-db:1.0.6] C:\Users\sreek\.gradle\caches\transforms-2\files-2.1\40d132d4169ee4715906e6aabb11ff89\jetified-debug-db-1.0.6\AndroidManifest.xml:13:13-69
uses-permission#android.permission.ACCESS_WIFI_STATE
ADDED from [com.amitshekhar.android:debug-db-base:1.0.6] C:\Users\sreek\.gradle\caches\transforms-2\files-2.1\1d8f44d93434fad3ca24221c9379efa1\jetified-debug-db-base-1.0.6\AndroidManifest.xml:30:5-76
	android:name
		ADDED from [com.amitshekhar.android:debug-db-base:1.0.6] C:\Users\sreek\.gradle\caches\transforms-2\files-2.1\1d8f44d93434fad3ca24221c9379efa1\jetified-debug-db-base-1.0.6\AndroidManifest.xml:30:22-73
service#androidx.room.MultiInstanceInvalidationService
ADDED from [androidx.room:room-runtime:2.2.5] C:\Users\sreek\.gradle\caches\transforms-2\files-2.1\28e9fb3eede996dd8d91f8bfd7ee4a2a\room-runtime-2.2.5\AndroidManifest.xml:25:9-28:40
	android:exported
		ADDED from [androidx.room:room-runtime:2.2.5] C:\Users\sreek\.gradle\caches\transforms-2\files-2.1\28e9fb3eede996dd8d91f8bfd7ee4a2a\room-runtime-2.2.5\AndroidManifest.xml:28:13-37
	android:directBootAware
		ADDED from [androidx.room:room-runtime:2.2.5] C:\Users\sreek\.gradle\caches\transforms-2\files-2.1\28e9fb3eede996dd8d91f8bfd7ee4a2a\room-runtime-2.2.5\AndroidManifest.xml:27:13-43
	android:name
		ADDED from [androidx.room:room-runtime:2.2.5] C:\Users\sreek\.gradle\caches\transforms-2\files-2.1\28e9fb3eede996dd8d91f8bfd7ee4a2a\room-runtime-2.2.5\AndroidManifest.xml:26:13-74
